entry node: s18
exit node: s13
default output: o74
transition: s21 -> e1/o74 -> s53
transition: s39 -> e1/o74 -> s53
transition: s13 -> e66/o21 -> s80
transition: s53 -> e1/o74 -> s54
transition: s18 -> e66/o21 -> s53
transition: s54 -> e82/o74 -> s31
transition: s18 -> e1/o21 -> s74
transition: s31 -> e82/o21 -> s13
transition: s49 -> e1/o21 -> s59
transition: s74 -> e82/o21 -> s80
transition: s59 -> e1/o74 -> s13
transition: s49 -> e66/o21 -> s1
transition: s21 -> e66/o21 -> s80
transition: s13 -> e1/o21 -> s74
transition: s54 -> e66/o74 -> s31
transition: s1 -> e66/o74 -> s41
transition: s18 -> e82/o21 -> s32
transition: s31 -> e66/o74 -> s74
transition: s42 -> e66/o21 -> s21
transition: s74 -> e66/o74 -> s49
transition: s74 -> e1/o21 -> s21
transition: s31 -> e1/o21 -> s54
transition: s49 -> e82/o74 -> s59
transition: s59 -> e66/o74 -> s49
transition: s32 -> e82/o21 -> s31
transition: s53 -> e82/o21 -> s59
transition: s32 -> e1/o21 -> s54
transition: s41 -> e66/o74 -> s18
transition: s80 -> e66/o74 -> s39
transition: s39 -> e82/o21 -> s39
transition: s41 -> e82/o21 -> s74
transition: s21 -> e82/o21 -> s1
transition: s39 -> e66/o74 -> s31
transition: s1 -> e1/o21 -> s53
transition: s54 -> e1/o74 -> s32
transition: s1 -> e82/o74 -> s39
transition: s53 -> e66/o21 -> s80
transition: s59 -> e82/o74 -> s39
transition: s32 -> e66/o21 -> s1
transition: s42 -> e1/o21 -> s21
transition: s80 -> e82/o21 -> s42
transition: s42 -> e82/o74 -> s18
transition: s80 -> e1/o21 -> s13
